{
  "class": "individual",
  "category": "water",
  "title": "Fett och flott",
  "content": "Flotten går lågt i vattnet. Någon av er har ätit för mycket sillsallad innan avresan, och flottens framfart känns osäker.",
  "options": [
    "Jag erbjuder mig att kliva av flotten och gå bredvid (+1 GP)",
    "Jag föreslår att vi minskar den mättaste medlemens ransoner framöver, och får gehör från gruppen (-1 GP, +1 resurs)"
  ]
}
