{
  "class": "individual",
  "category": "forest",
  "title": "Skäggdront",
  "content": "Ett vackert exemplar av en utrotningshotad art står på vägen framför oss.",
  "options": [
    "Jag matar den med några prima mandelmusslor (-3 resurser, +1 GP)",
    "Jag dödar den, och tar vara på dess kött (+1 resurs, -1GP)"
  ]
}
